{
    "tracks": {
        "href": "https://api.spotify.com/v1/search?query=Hello&type=track&offset=0&limit=1",
        "items": [
            {
                "album": {
                    "album_type": "album",
                    "artists": [
                        {
                            "external_urls": {
                                "spotify": "https://open.spotify.com/artist/4dpARuHxo51G3z768sgnrY"
                            },
                            "href": "https://api.spotify.com/v1/artists/4dpARuHxo51G3z768sgnrY",
                            "id": "4dpARuHxo51G3z768sgnrY",
                            "name": "Adele",
                            "type": "artist",
                            "uri": "spotify:artist:4dpARuHxo51G3z768sgnrY"
                        }
                    ],
                    "available_markets": [
                        "AR",
                        "BO",
                        "BR",
                        "BZ",
                        "CL",
                        "CO",
                        "CR",
                        "DO",
                        "EC",
                        "GT",
                        "GY",
                        "HN",
                        "MX",
                        "NI",
                        "PA",
                        "PE",
                        "PY",
                        "SR",
                        "SV",
                        "US",
                        "UY"
                    ],
                    "external_urls": {
                        "spotify": "https://open.spotify.com/album/3AvPX1B1HiFROvYjLb5Qwi"
                    },
                    "href": "https://api.spotify.com/v1/albums/3AvPX1B1HiFROvYjLb5Qwi",
                    "id": "3AvPX1B1HiFROvYjLb5Qwi",
                    "images": [
                        {
                            "height": 640,
                            "url": "https://i.scdn.co/image/ab67616d0000b273e4c2f81f26b3357015d65b82",
                            "width": 640
                        },
                        {
                            "height": 300,
                            "url": "https://i.scdn.co/image/ab67616d00001e02e4c2f81f26b3357015d65b82",
                            "width": 300
                        },
                        {
                            "height": 64,
                            "url": "https://i.scdn.co/image/ab67616d00004851e4c2f81f26b3357015d65b82",
                            "width": 64
                        }
                    ],
                    "name": "25",
                    "release_date": "2015-11-20",
                    "release_date_precision": "day",
                    "total_tracks": 11,
                    "type": "album",
                    "uri": "spotify:album:3AvPX1B1HiFROvYjLb5Qwi"
                },
                "artists": [
                    {
                        "external_urls": {
                            "spotify": "https://open.spotify.com/artist/4dpARuHxo51G3z768sgnrY"
                        },
                        "href": "https://api.spotify.com/v1/artists/4dpARuHxo51G3z768sgnrY",
                        "id": "4dpARuHxo51G3z768sgnrY",
                        "name": "Adele",
                        "type": "artist",
                        "uri": "spotify:artist:4dpARuHxo51G3z768sgnrY"
                    }
                ],
                "available_markets": [
                    "AR",
                    "BO",
                    "BR",
                    "BZ",
                    "CL",
                    "CO",
                    "CR",
                    "DO",
                    "EC",
                    "GT",
                    "GY",
                    "HN",
                    "MX",
                    "NI",
                    "PA",
                    "PE",
                    "PY",
                    "SR",
                    "SV",
                    "US",
                    "UY"
                ],
                "disc_number": 1,
                "duration_ms": 295502,
                "explicit": false,
                "external_ids": {
                    "isrc": "GBBKS1500214"
                },
                "external_urls": {
                    "spotify": "https://open.spotify.com/track/62PaSfnXSMyLshYJrlTuL3"
                },
                "href": "https://api.spotify.com/v1/tracks/62PaSfnXSMyLshYJrlTuL3",
                "id": "62PaSfnXSMyLshYJrlTuL3",
                "is_local": false,
                "name": "Hello",
                "popularity": 77,
                "preview_url": "https://p.scdn.co/mp3-preview/bd673ff312a0a8fc1ebce1f1f9f79db1eb0d232d?cid=774b29d4f13844c495f206cafdad9c86",
                "track_number": 1,
                "type": "track",
                "uri": "spotify:track:62PaSfnXSMyLshYJrlTuL3"
            }
        ],
        "limit": 1,
        "next": "https://api.spotify.com/v1/search?query=Hello&type=track&offset=1&limit=1",
        "offset": 0,
        "previous": null,
        "total": 10001
    }
}